Tarea 2 Esdras Sanchez
…
Ejercicio 2

testResults = read.csv("testResults.csv")

(testResultsTidy = testResults %>%
pivot_longer(week1:week5, names_to = "week"))

## # A tibble: 1,000 x 6
##    name     id gender_age test_number week  value
##    <chr> <int> <chr>            <int> <chr> <int>
##  1 Jacob   108 m_20                 1 week1     8
##  2 Jacob   108 m_20                 1 week2     5
##  3 Jacob   108 m_20                 1 week3     7
##  4 Jacob   108 m_20                 1 week4     5
##  5 Jacob   108 m_20                 1 week5     6
##  6 Jacob   108 m_20                 2 week1     2
##  7 Jacob   108 m_20                 2 week2     2
##  8 Jacob   108 m_20                 2 week3     4
##  9 Jacob   108 m_20                 2 week4     0
## 10 Jacob   108 m_20                 2 week5     3
## # ... with 990 more rows

testResultsTidy_1 <- testResultsTidy %>% 
  separate(gender_age, c("gender", "age"), sep = "_")
testResultsTidy_1

## # A tibble: 1,000 x 7
##    name     id gender age   test_number week  value
##    <chr> <int> <chr>  <chr>       <int> <chr> <int>
##  1 Jacob   108 m      20              1 week1     8
##  2 Jacob   108 m      20              1 week2     5
##  3 Jacob   108 m      20              1 week3     7
##  4 Jacob   108 m      20              1 week4     5
##  5 Jacob   108 m      20              1 week5     6
##  6 Jacob   108 m      20              2 week1     2
##  7 Jacob   108 m      20              2 week2     2
##  8 Jacob   108 m      20              2 week3     4
##  9 Jacob   108 m      20              2 week4     0
## 10 Jacob   108 m      20              2 week5     3
## # ... with 990 more rows

testResultsTidy_2 <- testResultsTidy_1 %>% 
  separate(week, c("delete", "week"), sep = 4)

testResultsTidy_2 = testResultsTidy_2[,-6]
testResultsTidy_2

## # A tibble: 1,000 x 7
##    name     id gender age   test_number week  value
##    <chr> <int> <chr>  <chr>       <int> <chr> <int>
##  1 Jacob   108 m      20              1 1         8
##  2 Jacob   108 m      20              1 2         5
##  3 Jacob   108 m      20              1 3         7
##  4 Jacob   108 m      20              1 4         5
##  5 Jacob   108 m      20              1 5         6
##  6 Jacob   108 m      20              2 1         2
##  7 Jacob   108 m      20              2 2         2
##  8 Jacob   108 m      20              2 3         4
##  9 Jacob   108 m      20              2 4         0
## 10 Jacob   108 m      20              2 5         3
## # ... with 990 more rows

testResultsTidy_2$age = as.integer(testResultsTidy_2$age)
testResultsTidy_2$week = as.integer(testResultsTidy_2$week)
testResultsTidy_2$gender = as.factor(testResultsTidy_2$gender)
testResultsTidy_2

## # A tibble: 1,000 x 7
##    name     id gender   age test_number  week value
##    <chr> <int> <fct>  <int>       <int> <int> <int>
##  1 Jacob   108 m         20           1     1     8
##  2 Jacob   108 m         20           1     2     5
##  3 Jacob   108 m         20           1     3     7
##  4 Jacob   108 m         20           1     4     5
##  5 Jacob   108 m         20           1     5     6
##  6 Jacob   108 m         20           2     1     2
##  7 Jacob   108 m         20           2     2     2
##  8 Jacob   108 m         20           2     3     4
##  9 Jacob   108 m         20           2     4     0
## 10 Jacob   108 m         20           2     5     3
## # ... with 990 more rows
…
Carat tiene la mxima correlacin con las variables x,y,z como caba esperar. Y carat llega a una correlacin de 0.9 con la variable price.

Ejercicio 4, Seccin 12.6.1 de R4DS

who

## # A tibble: 7,240 x 60
##    country     iso2  iso3   year new_sp_m014 new_sp_m1524 new_sp_m2534 new_sp_m3544
##    <chr>       <chr> <chr> <int>       <int>        <int>        <int>        <int>
##  1 Afghanistan AF    AFG    1980          NA           NA           NA           NA
##  2 Afghanistan AF    AFG    1981          NA           NA           NA           NA
##  3 Afghanistan AF    AFG    1982          NA           NA           NA           NA
##  4 Afghanistan AF    AFG    1983          NA           NA           NA           NA
##  5 Afghanistan AF    AFG    1984          NA           NA           NA           NA
##  6 Afghanistan AF    AFG    1985          NA           NA           NA           NA
##  7 Afghanistan AF    AFG    1986          NA           NA           NA           NA
##  8 Afghanistan AF    AFG    1987          NA           NA           NA           NA
##  9 Afghanistan AF    AFG    1988          NA           NA           NA           NA
## 10 Afghanistan AF    AFG    1989          NA           NA           NA           NA
## # ... with 7,230 more rows, and 52 more variables: new_sp_m4554 <int>,
## #   new_sp_m5564 <int>, new_sp_m65 <int>, new_sp_f014 <int>,
## #   new_sp_f1524 <int>, new_sp_f2534 <int>, new_sp_f3544 <int>,
## #   new_sp_f4554 <int>, new_sp_f5564 <int>, new_sp_f65 <int>,
## #   new_sn_m014 <int>, new_sn_m1524 <int>, new_sn_m2534 <int>,
## #   new_sn_m3544 <int>, new_sn_m4554 <int>, new_sn_m5564 <int>,
## #   new_sn_m65 <int>, new_sn_f014 <int>, new_sn_f1524 <int>, ...
…
Se va a proceder a realizar el data cleaning.

who1 = who %>%
  pivot_longer(
    cols = new_sp_m014:newrel_f65,
    names_to = "key",
    values_to = "cases",
    values_drop_na = TRUE
  )

who1%>%
  count(key)

## # A tibble: 56 x 2
##    key              n
##    <chr>        <int>
##  1 new_ep_f014   1032
##  2 new_ep_f1524  1021
##  3 new_ep_f2534  1021
##  4 new_ep_f3544  1021
##  5 new_ep_f4554  1017
##  6 new_ep_f5564  1017
##  7 new_ep_f65    1014
##  8 new_ep_m014   1038
##  9 new_ep_m1524  1026
## 10 new_ep_m2534  1020
## # ... with 46 more rows

who2 = who1%>%
  mutate(key = stringr::str_replace(key,"newrel","new_rel"))
who2

## # A tibble: 76,046 x 6
##    country     iso2  iso3   year key          cases
##    <chr>       <chr> <chr> <int> <chr>        <int>
##  1 Afghanistan AF    AFG    1997 new_sp_m014      0
##  2 Afghanistan AF    AFG    1997 new_sp_m1524    10
##  3 Afghanistan AF    AFG    1997 new_sp_m2534     6
##  4 Afghanistan AF    AFG    1997 new_sp_m3544     3
##  5 Afghanistan AF    AFG    1997 new_sp_m4554     5
##  6 Afghanistan AF    AFG    1997 new_sp_m5564     2
##  7 Afghanistan AF    AFG    1997 new_sp_m65       0
##  8 Afghanistan AF    AFG    1997 new_sp_f014      5
##  9 Afghanistan AF    AFG    1997 new_sp_f1524    38
## 10 Afghanistan AF    AFG    1997 new_sp_f2534    36
## # ... with 76,036 more rows

who3 = who2%>%
  separate(key, c("new","type","sexage"), sep = "_")
who3

## # A tibble: 76,046 x 8
##    country     iso2  iso3   year new   type  sexage cases
##    <chr>       <chr> <chr> <int> <chr> <chr> <chr>  <int>
##  1 Afghanistan AF    AFG    1997 new   sp    m014       0
##  2 Afghanistan AF    AFG    1997 new   sp    m1524     10
##  3 Afghanistan AF    AFG    1997 new   sp    m2534      6
##  4 Afghanistan AF    AFG    1997 new   sp    m3544      3
##  5 Afghanistan AF    AFG    1997 new   sp    m4554      5
##  6 Afghanistan AF    AFG    1997 new   sp    m5564      2
##  7 Afghanistan AF    AFG    1997 new   sp    m65        0
##  8 Afghanistan AF    AFG    1997 new   sp    f014       5
##  9 Afghanistan AF    AFG    1997 new   sp    f1524     38
## 10 Afghanistan AF    AFG    1997 new   sp    f2534     36
## # ... with 76,036 more rows

who4 = who3 %>%
  select(-new,-iso2,-iso3)
who4

## # A tibble: 76,046 x 5
##    country      year type  sexage cases
##    <chr>       <int> <chr> <chr>  <int>
##  1 Afghanistan  1997 sp    m014       0
##  2 Afghanistan  1997 sp    m1524     10
##  3 Afghanistan  1997 sp    m2534      6
##  4 Afghanistan  1997 sp    m3544      3
##  5 Afghanistan  1997 sp    m4554      5
##  6 Afghanistan  1997 sp    m5564      2
##  7 Afghanistan  1997 sp    m65        0
##  8 Afghanistan  1997 sp    f014       5
##  9 Afghanistan  1997 sp    f1524     38
## 10 Afghanistan  1997 sp    f2534     36
## # ... with 76,036 more rows

who5 = who4%>%
  separate(sexage,c("sex","age"), sep = 1)
who5

## # A tibble: 76,046 x 6
##    country      year type  sex   age   cases
##    <chr>       <int> <chr> <chr> <chr> <int>
##  1 Afghanistan  1997 sp    m     014       0
##  2 Afghanistan  1997 sp    m     1524     10
##  3 Afghanistan  1997 sp    m     2534      6
##  4 Afghanistan  1997 sp    m     3544      3
##  5 Afghanistan  1997 sp    m     4554      5
##  6 Afghanistan  1997 sp    m     5564      2
##  7 Afghanistan  1997 sp    m     65        0
##  8 Afghanistan  1997 sp    f     014       5
##  9 Afghanistan  1997 sp    f     1524     38
## 10 Afghanistan  1997 sp    f     2534     36
## # ... with 76,036 more rows
…
